%YAML 1.1
%TAG !u! tag:unity3d.com,2011:
--- !u!114 &11400000
MonoBehaviour:
  m_ObjectHideFlags: 0
  m_PrefabParentObject: {fileID: 0}
  m_PrefabInternal: {fileID: 0}
  m_GameObject: {fileID: 0}
  m_Enabled: 1
  m_EditorHideFlags: 0
  m_Script: {fileID: 11500000, guid: 54276434dda9c694e85abaf98cdd981d, type: 3}
  m_Name: gradient white
  m_EditorClassIdentifier: 
  _redCoeffs: {x: 1, y: 0, z: 1, w: 0}
  _greenCoeffs: {x: 1, y: 0, z: 1, w: 0.333}
  _blueCoeffs: {x: 1, y: 0, z: 1, w: 0.665}
